 grid=1,core;
 grid=2,model;

 levels=1,eta,-1;

 levels=2,pres,[1000., 975., 950., 925., 900., 875., 850., 825., 800., 775., 750., 700., 650., 600., 550., 500., 450., 400., 350., 300., 250., 225., 200., 175., 170., 150., 130., 125., 115., 100., 90., 80., 70., 50., 30., 20., 15., 10., 7., 5., 3., 2., 1.5, 1.];

 steps=1,hour,outfreq;
 steps=2,hour,<0,laststep,6>;
 steps=3,hour,<0,laststep,24>;
 steps=4,hour,<0,laststep_m1,3>;
 steps=5,hour,<0,laststep_m1,24>;
 steps=6,hour,laststep;
 steps=7,month,<0,24000,1>;
 steps=8,hour,<0,laststep,1>;
 steps=9,hour,<0,laststep_m1,1>;

 sortie([ME,P0,PN]                                                           , grid, 1, levels, 1, steps, 9)
 sortie([TT,GZ,HU,HR,UU,VV,WW]                                               , grid, 1, levels, 1, steps, 4)

 sortie([SSA,SSC,DUA,DUC,DMS,SO2,SO4,BCO,BCY,OCO,OCY,CO2]                    , grid, 1, levels, 1, steps, 5)

 sortie([ME,P0,PN,TT,GZ,HU,HR,UU,VV,WW,
         SSA,SSC,DUA,DUC,DMS,SO2,SO4,BCO,BCY,OCO,OCY,CO2]                    , grid, 2, levels, 1, steps, 6)

 sortie_p([LA,LO,FLND,FLKU,FLKR,DZG,PORG]                                    , grid, 1, levels, 1, steps, 1)

 sortie_p([SICN,TBAS,GTO,GTA,SNO,SIC,AN,RHON,TV,TN,WVL,WVF,MV,TFX,GR,
           QFX,CHFX,CQFX,PBLT,TCV,PBLH,TG,WGL,WGF,FARE,SNOT,GTT]             , grid, 1, levels, 1, steps, 8)

 sortie_p([CLD,TACN,RH,CLW,CIC,OMET,STMX,STMN,SRHN,SRHX,SWX,SWXU,SWXV]       , grid, 1, levels, 1, steps, 3)

 sortie_p([SRH,SWA,PWAT,DR,FSO,FSG,FSD,FSV,FSS,FSSC,FDLC,
           FDL,FLG,FSLO,CLDT,CLDO,FSGC,FLGC,FN,SMLT,CLWT,CICT,HFL,HFS,PCP,
           PCPC,PIVF,PCPN,PIVL,PIN,PIG,QFS,BEG,BWG,UFS,VFS,ST,SQ,SU,SV,
           FSDC,FSGV,FSGG,FLGV,FLGG,HFSV,HFSG,HFSN,HMFV,HMFN,HFCV,HFCN,
           QFG,QFN,QFVL,QFVF,BCD,CAPE,CDCB,CINH,TCD,
           FSGN,FLGN,ROF,ROFV,ROFN,ROFO,ROVG,WTRV,WTRN,WTRG,OUFS,OVFS,
           HFLV,HFLN,HFLG,ZN,PSA,FVN,
           FVG,SKYG,SKYN,HFCG,QFVG,HMFG,BEGL,BEGK,BEGO,BEGI,
           FSR,FSRC,OLR,OLRC,FSAM,FLAM,FSAN,FLAN,
           OFSG,HSEA,WSNO,ZPND,GA,GFLX,HBL,ILMO,PET,ROFB,ROFS,UE,WTAB,
           VIXX,XFXX,XKXX,XLXX]                                              , grid, 1, levels, 1, steps, 8, accum)

 sortie_p([PWM,QHM,QFM,QTM,VMXX,VFXX,VHXX,VTXX]                              , grid, 1, levels, 1, steps, 7, accum)


